,Regione,Provincia,Comune,Codice Istat del Comune,rental_demand,average_daily_rate,occupancy_rate,revenue,entire_home_rentals_percent,found
0,PIEMONTE,TORINO,Ala di Stura,1003.0,,,,,,
1,PIEMONTE,TORINO,Avigliana,1013.0,56,80.0,5.0,33.0,78.0,1.0
2,PIEMONTE,TORINO,Balme,1019.0,,,,,,
3,PIEMONTE,TORINO,Bardonecchia,1022.0,24,125.0,3.0,244.0,100.0,1.0
4,PIEMONTE,TORINO,Bobbio Pellice,1026.0,,,,,,
